begin
	//Коментар №1
	/* Коментар №2 */
	string SomeText; //Коментар №3
	string SomeText1= "regerh 20g"; /* Коментар №4 */
	SomeText = "iohiqbhk kjkj sdaojsjflsanf";
	int pos;
	pos = 10;
	int i = pos + 2 * 5;
	while( i < 10 )
	{
	  if( i < 5 ) 
	  {
	    pos = pos + i * 2;
	  }
	  else
	  {
	    pos = pos + i;
	  }
	  i = i + 1;	  
	}
	int sym = 10;
	print "pos = " pos ;
	find *"kj"?"j" in SomeText;
	thread th1;
	thread th2 << find *[2*sym]"g" in SomeText1; //знайти [2*sym]"g" ===> 20g
	th1 << find *"kj"*"j" in SomeText;
end